<svg xmlns="http://www.w3.org/2000/svg" width="127.074" height="126.508" viewBox="0 0 127.074 126.508">
  <path id="Path_18" data-name="Path 18" d="M912.189,126.638H899.2c-1.295-.172-2.586-.37-3.885-.513-7.178-.789-14.412-1.253-21.517-2.464a49.98,49.98,0,0,1-12.179-4.074c-2.982-1.366-2.875-3.894-.049-5.6a18.36,18.36,0,0,1,5.641-2.458c6.608-1.326,13.263-2.428,19.92-3.488,2.416-.385,4.889-.411,7.477-.612a42.848,42.848,0,0,0-.994,6.866,4.089,4.089,0,0,0,1.824,3.169c1.706.7,2.806-.68,3.113-2.329.5-2.672,1.216-8.067,1.216-8.067s.279-21.785-1.7-32.545c-2.188-11.88-5.577-23.374-12.394-33.539-1.792-2.673-4.067-5.023-6.614-8.122-3.763,15.3-2.393,28.554,8.563,40.336-7.737-2.268-14.086-5.5-18.661-11.5-4.7-6.167-5.724-13.118-3.9-20.631-7.481,8.179-10.182,17.68-8.154,28.909A29,29,0,0,1,850,52.018c-.185-8.69,3.693-15.461,10.013-21.105-.256-.128-.352-.22-.422-.2-.358.085-.715.182-1.063.3-7.415,2.525-12.46,7.763-16.368,14.3V42.487a13.212,13.212,0,0,0,.522-1.878c1.419-10.937,8.26-18.685,19.066-20.888,3.68-.751,7.577-.445,11.47-.625,1.727-8.914,7.336-14.565,15.82-17.593C890.682.914,892.42.581,894.116.13H899.2a18.069,18.069,0,0,0,1.815.584,26.342,26.342,0,0,1,13.514,7.411c-9.637-1.464-18-.794-24.226,6.539,3.387.417,6.764.305,9.776,1.3,9.551,3.149,13.466,10.825,14.848,20.094a96.386,96.386,0,0,1,.491,9.974c-8.666-15.425-20.763-19.539-30.585-16.276.852,1.055,1.684,2.051,2.478,3.073,9.837,12.672,15.012,27.388,18.629,42.76a173.373,173.373,0,0,1,4.511,38.542c.015,1.906.453,3.526,2.7,3.461,2.049-.061,2.394-1.614,2.51-3.394q.378-5.765,1.048-11.509c1.717-14.843,5.392-29.166,12.249-42.493,2.762-5.369,6.3-10.336,9.724-15.863C929.4,43.568,923.8,48.995,918.9,56.453c-.361-6.1.326-11.323,3.709-15.868,3.314-4.453,7.937-5.96,14.058-5.288-4.82-5.512-10.419-5.922-16.882-5.227,4.906-4.573,10.175-6.437,16.143-5.547,7.745,1.158,12.452,5.977,14.413,13.349,10.048.141,15.8,4.154,18.019,12.4.314,1.164.58,2.343.868,3.515v2.259a49.69,49.69,0,0,0-4.9-5.715,51.929,51.929,0,0,0-6.4-4.192l-.36.638c7.463,8.83,8.132,19.188,1.664,25.727-.294-11.017-1.585-15.289-5.677-18.777.433,12.17-4.663,19.147-15.514,21.237,7.555-7.656,7.537-18.869,4.653-25.892-12.76,17.713-17.925,37.395-17.865,58.843,1.881.257,3.481.364,5.03.706,5.752,1.267,11.528,2.46,17.206,4.008,2.046.557,4.707,1.414,4.669,4.2-.037,2.727-2.626,3.681-4.7,4.178-7,1.674-14.037,3.208-21.127,4.41-4.512.764-9.139.843-13.714,1.228" transform="translate(-842.157 -0.13)" fill="#ffffff"/>
</svg>
